^Z:\__4THYEAR\SDL\SDL_OOWRAPPER\GRAPHICSSYSTEM\MAIN.CPP
Z:\__4THYEAR\SDL\SDL_OOWRAPPER\GRAPHICSSYSTEM\DEBUG\VC140.PDB
Z:\__4THYEAR\SDL\SDL_OOWRAPPER\GRAPHICSSYSTEM\DEBUG\VC140.IDB
Z:\__4THYEAR\SDL\SDL_OOWRAPPER\GRAPHICSSYSTEM\DEBUG\MAIN.OBJ
